%YAML 1.1
%TAG !u! tag:unity3d.com,2011:
--- !u!1001 &7414947686762198515
PrefabInstance:
  m_ObjectHideFlags: 0
  serializedVersion: 2
  m_Modification:
    m_TransformParent: {fileID: 0}
    m_Modifications:
    - target: {fileID: 209252402066424102, guid: bdb92509557ddcf48923fe38add8401d,
        type: 3}
      propertyPath: m_LocalPosition.x
      value: 0
      objectReference: {fileID: 0}
    - target: {fileID: 209252402066424102, guid: bdb92509557ddcf48923fe38add8401d,
        type: 3}
      propertyPath: m_LocalPosition.y
      value: 0
      objectReference: {fileID: 0}
    - target: {fileID: 209252402066424102, guid: bdb92509557ddcf48923fe38add8401d,
        type: 3}
      propertyPath: m_LocalPosition.z
      value: 0
      objectReference: {fileID: 0}
    - target: {fileID: 209252402066424102, guid: bdb92509557ddcf48923fe38add8401d,
        type: 3}
      propertyPath: m_LocalRotation.x
      value: 0
      objectReference: {fileID: 0}
    - target: {fileID: 209252402066424102, guid: bdb92509557ddcf48923fe38add8401d,
        type: 3}
      propertyPath: m_LocalRotation.y
      value: 0
      objectReference: {fileID: 0}
    - target: {fileID: 209252402066424102, guid: bdb92509557ddcf48923fe38add8401d,
        type: 3}
      propertyPath: m_LocalRotation.z
      value: 0
      objectReference: {fileID: 0}
    - target: {fileID: 209252402066424102, guid: bdb92509557ddcf48923fe38add8401d,
        type: 3}
      propertyPath: m_LocalRotation.w
      value: 1
      objectReference: {fileID: 0}
    - target: {fileID: 209252402066424102, guid: bdb92509557ddcf48923fe38add8401d,
        type: 3}
      propertyPath: m_RootOrder
      value: 0
      objectReference: {fileID: 0}
    - target: {fileID: 209252402066424102, guid: bdb92509557ddcf48923fe38add8401d,
        type: 3}
      propertyPath: m_LocalEulerAnglesHint.x
      value: 0
      objectReference: {fileID: 0}
    - target: {fileID: 209252402066424102, guid: bdb92509557ddcf48923fe38add8401d,
        type: 3}
      propertyPath: m_LocalEulerAnglesHint.y
      value: 0
      objectReference: {fileID: 0}
    - target: {fileID: 209252402066424102, guid: bdb92509557ddcf48923fe38add8401d,
        type: 3}
      propertyPath: m_LocalEulerAnglesHint.z
      value: 0
      objectReference: {fileID: 0}
    - target: {fileID: 4990695457230454718, guid: bdb92509557ddcf48923fe38add8401d,
        type: 3}
      propertyPath: sceneId
      value: 0
      objectReference: {fileID: 0}
    - target: {fileID: 4990695457230454718, guid: bdb92509557ddcf48923fe38add8401d,
        type: 3}
      propertyPath: m_AssetId
      value: 
      objectReference: {fileID: 0}
    - target: {fileID: 6051302693382383206, guid: bdb92509557ddcf48923fe38add8401d,
        type: 3}
      propertyPath: m_Name
      value: lagrimaMalaNetwork Variant
      objectReference: {fileID: 0}
    - target: {fileID: 6051302693382383206, guid: bdb92509557ddcf48923fe38add8401d,
        type: 3}
      propertyPath: m_TagString
      value: Enemy
      objectReference: {fileID: 0}
    - target: {fileID: 8264610312687016876, guid: bdb92509557ddcf48923fe38add8401d,
        type: 3}
      propertyPath: m_Color.r
      value: 1
      objectReference: {fileID: 0}
    - target: {fileID: 8264610312687016876, guid: bdb92509557ddcf48923fe38add8401d,
        type: 3}
      propertyPath: m_Color.g
      value: 0
      objectReference: {fileID: 0}
    - target: {fileID: 8264610312687016876, guid: bdb92509557ddcf48923fe38add8401d,
        type: 3}
      propertyPath: m_Color.b
      value: 0
      objectReference: {fileID: 0}
    m_RemovedComponents: []
  m_SourcePrefab: {fileID: 100100000, guid: bdb92509557ddcf48923fe38add8401d, type: 3}
